\relax 
\providecommand\zref@newlabel[2]{}
\providecommand\hyper@newdestlabel[2]{}
\providecommand\AtEndDvi@Check{}
\AtEndDvi@Check
\providecommand\HyperFirstAtBeginDocument{\AtBeginDocument}
\HyperFirstAtBeginDocument{\ifx\hyper@anchor\@undefined
\global\let\oldcontentsline\contentsline
\gdef\contentsline#1#2#3#4{\oldcontentsline{#1}{#2}{#3}}
\global\let\oldnewlabel\newlabel
\gdef\newlabel#1#2{\newlabelxx{#1}#2}
\gdef\newlabelxx#1#2#3#4#5#6{\oldnewlabel{#1}{{#2}{#3}}}
\AtEndDocument{\ifx\hyper@anchor\@undefined
\let\contentsline\oldcontentsline
\let\newlabel\oldnewlabel
\fi}
\fi}
\global\let\hyper@last\relax 
\gdef\HyperFirstAtBeginDocument#1{#1}
\providecommand*\HyPL@Entry[1]{}
\abx@aux@sortscheme{nty}
\abx@aux@sortnamekeyscheme{global}
\HyPL@Entry{0<</S/D>>}
\providecommand\@newglossary[4]{}
\@newglossary{main}{glg}{gls}{glo}
\@newglossary{acronym}{alg}{acr}{acn}
\@writefile{toc}{\boolfalse {citerequest}\boolfalse {citetracker}\boolfalse {pagetracker}\boolfalse {backtracker}\relax }
\@writefile{lof}{\boolfalse {citerequest}\boolfalse {citetracker}\boolfalse {pagetracker}\boolfalse {backtracker}\relax }
\@writefile{lot}{\boolfalse {citerequest}\boolfalse {citetracker}\boolfalse {pagetracker}\boolfalse {backtracker}\relax }
\select@language{spanish}
\@writefile{toc}{\defcounter {refsection}{0}\relax }\@writefile{toc}{\select@language{spanish}}
\@writefile{lof}{\defcounter {refsection}{0}\relax }\@writefile{lof}{\select@language{spanish}}
\@writefile{lot}{\defcounter {refsection}{0}\relax }\@writefile{lot}{\select@language{spanish}}
\gdef \LT@i {\LT@entry 
    {1}{63.86719pt}\LT@entry 
    {5}{154.26378pt}\LT@entry 
    {5}{154.26378pt}\LT@entry 
    {1}{69.54492pt}}
\@writefile{toc}{\contentsline {section}{\numberline {1}Objeto}{2}{section.1}}
\newlabel{sec:antecedentes}{{1}{2}{Objeto}{section.1}{}}
\@writefile{toc}{\contentsline {section}{\numberline {2}Acto de selección de la muestra}{2}{section.2}}
\newlabel{sec:plan}{{2}{2}{Acto de selección de la muestra}{section.2}{}}
\gdef \LT@ii {\LT@entry 
    {1}{63.86719pt}\LT@entry 
    {5}{154.26378pt}\LT@entry 
    {5}{154.26378pt}\LT@entry 
    {1}{69.54492pt}}
\@writefile{toc}{\contentsline {section}{\numberline {3}Expedientes con condiciones especiales propuestos a controlar}{3}{section.3}}
\gdef \LT@iii {\LT@entry 
    {1}{63.86719pt}\LT@entry 
    {5}{154.26378pt}\LT@entry 
    {5}{154.26378pt}\LT@entry 
    {1}{69.54492pt}}
\gdef \LT@iv {\LT@entry 
    {1}{63.86719pt}\LT@entry 
    {5}{154.26378pt}\LT@entry 
    {5}{154.26378pt}\LT@entry 
    {1}{69.54492pt}}
\@writefile{toc}{\contentsline {section}{\numberline {4}Modalidad de control}{4}{section.4}}
\gdef \LT@v {\LT@entry 
    {1}{63.86719pt}\LT@entry 
    {5}{154.26378pt}\LT@entry 
    {5}{154.26378pt}\LT@entry 
    {1}{69.54492pt}}
\newlabel{LastPage}{{}{5}{}{page.5}{}}
\xdef\lastpage@lastpage{5}
\xdef\lastpage@lastpageHy{5}
\xwm@secstopagerange{{1}{2},{2}{2},{3}{3},{4}{4},{10000}{5}}
\newlabel{xwmlastpage}{{2}{5}{Acto de selección de la muestra\relax }{table.5}{}}
\zref@newlabel{LastPage}{\default{2}\page{5}\abspage{5}\mdf@pagevalue{5}}
