\boolfalse {citerequest}\boolfalse {citetracker}\boolfalse {pagetracker}\boolfalse {backtracker}\relax 
\defcounter {refsection}{0}\relax 
\select@language {spanish}
\contentsline {section}{\numberline {1}Objeto}{2}{section.1}
\contentsline {section}{\numberline {2}Acto de selección de la muestra}{2}{section.2}
\contentsline {section}{\numberline {3}Expedientes con condiciones especiales propuestos a controlar}{3}{section.3}
\contentsline {section}{\numberline {4}Modalidad de control}{4}{section.4}
